{
  "development": {
    "username": "adm",
    "password": "adm123456",
    "database": "bancodb_new",
    "host": "127.0.0.1",
    "dialect": "mysql"
  },
  "test": {
    "username": "adm",
    "password": "adm123456",
    "database": "bancobd",
    "host": "127.0.0.1",
    "dialect": "mysql"
  },
  "production": {
    "username": "adm",
    "password": "adm123456",
    "database": "bancobd_new",
    "host": "mysqlinstance.cr2oyivcrg9m.us-east-2.rds.amazonaws.com",
    "dialect": "mysql"
  }
}
